{
  "page": {
    "size": 1,
    "totalElements": 2,
    "totalPages": 2,
    "number": 0
  },
  "_embedded": {
    "events": [
      {
        "id": "G5vYZbY1A4X9A",
        "name": "Norfolk Jazz Festival",
        "url": "https://www.ticketmaster.com/event/G5vYZbY1A4X9A",
        "dates": {
          "start": { "dateTime": "2026-08-02T00:00:00Z" },
          "timezone": "America/New_York",
          "status": { "code": "onsale" }
        },
        "_embedded": {
          "venues": [{ "name": "Harbor Stage", "city": { "name": "Norfolk" }, "state": { "stateCode": "VA" } }]
        }
      }
    ]
  }
}
